<?xml version="1.0" standalone="no"?>
<!DOCTYPE svg PUBLIC "-//W3C//DTD SVG 1.1//EN" "http://www.w3.org/Graphics/SVG/1.1/DTD/svg11.dtd">
<svg xmlns="http://www.w3.org/2000/svg">
<metadata>Generated by Fontastic.me</metadata>
<defs>
<font id="usarc" horiz-adv-x="512">
<font-face font-family="usarc" units-per-em="512" ascent="480" descent="-32"/>
<missing-glyph horiz-adv-x="512" />

<glyph glyph-name="ship" unicode="&#97;" d="M250 507c-9 0-16-7-17-15l-8-54-21 0c-8 0-15-5-17-14l-7-37-25 0c-8 0-16-6-17-14l-13-73 112 54 0 0c11 5 24 5 35 0l115-56-13 75c-1 8-9 14-17 14l-25 0-7 37 0 0c-2 9-9 15-17 15l-21 0-8 53c-1 8-8 15-17 15z m-185-307l45-94c17 12 38 18 60 18 23 0 45-7 63-20 9-6 13-8 23-8l0 0c10 0 14 2 22 8 19 13 41 20 64 20 21 0 42-6 60-18l45 94c5 11 0 25-11 30l-171 82c-6 3-12 3-18 0l-171-82c-11-5-16-19-11-30z m-23-136c-8 0-15-4-20-10-5-6-6-14-4-22 2-6 7-12 13-15 17-8 35-12 53-12 26 0 51 8 72 23 8 5 8 5 14 5 6 0 6 0 14-5l0 0c21-15 46-23 72-23 26 0 51 8 72 23 8 5 8 5 14 5 6 0 6 0 14-5 37-26 84-30 125-11 6 3 11 8 13 15 2 7 1 14-3 20-4 7-12 12-21 12-3 0-7-1-11-3-10-4-20-6-31-6-16 0-32 5-45 14-24 18-58 18-82 0-13-9-29-14-45-14l0 0 0 0c-16 0-32 5-45 14-12 10-26 14-41 14-15 0-30-4-41-14-13-9-29-14-45-14-11 0-22 2-31 6-4 2-7 3-11 3z"/>
<glyph glyph-name="cruise" unicode="&#99;" d="M384 289c3-11 4-22 4-33 0-73-59-132-132-132-73 0-132 59-132 132 0 73 59 132 132 132 30 0 59-10 83-29 3-3 9-2 12 2 3 4 2 9-1 12-27 21-60 33-94 33-83 0-150-67-150-150 0-83 67-150 150-150 83 0 150 67 150 150 0 13-2 25-5 38-1 4-6 7-10 6-5-1-8-6-7-11z m-21 60c-4-3-5-8-2-12 4-6 8-12 11-18 2-3 5-5 8-5 2 0 3 1 4 2 5 2 6 7 4 12-4 6-8 13-13 19-3 4-9 5-12 2z m-73-102l81 0c5 0 9 4 9 9 0 5-4 9-9 9l-81 0c-1 6-5 12-9 16l40 70c2 4 1 10-3 12-4 2-10 1-12-3l-41-70c-3 1-6 1-9 1-3 0-6 0-9-1l-41 70c-2 4-8 5-12 3-4-2-5-8-3-12l40-70c-4-4-8-10-9-16l-81 0c-5 0-9-4-9-9 0-5 4-9 9-9l81 0c1-6 5-12 9-16l-40-70c-2-4-1-10 3-12 2-1 3-1 5-1 3 0 6 1 7 4l41 70c3-1 6-1 9-1 3 0 6 0 9 1l41-70c1-3 4-4 7-4 2 0 3 0 5 1 4 2 5 8 3 12l-40 70c4 4 8 10 9 16z m-52 9c0 10 8 18 18 18 10 0 18-8 18-18 0-10-8-18-18-18-10 0-18 8-18 18z m265 9l-71 0c-3 58-34 109-80 139l35 62c3 4 1 9-3 12-4 2-10 1-12-4l-35-61c-25 13-52 20-81 20-29 0-56-7-81-20l-35 61c-2 5-8 6-12 4-4-3-6-8-3-12l35-62c-46-30-77-81-80-139l-71 0c-5 0-9-4-9-9 0-5 4-9 9-9l71 0c3-58 34-109 80-139l-35-62c-3-4-1-9 3-12 1-1 3-1 4-1 3 0 6 2 8 5l35 61c25-13 52-20 81-20 29 0 56 7 81 20l35-61c2-3 5-5 8-5 1 0 3 0 4 1 4 3 6 8 3 12l-35 62c46 30 77 81 80 139l71 0c5 0 9 4 9 9 0 5-4 9-9 9z m-247-168c-88 0-159 71-159 159 0 88 71 159 159 159 88 0 159-71 159-159 0-88-71-159-159-159z"/>
<glyph glyph-name="train" unicode="&#98;" d="M399 367c-3 0-9 2-9 2l0 62c0 14-11 26-30 31-19 5-34 9-62 11 5 4 8 10 8 17 0 12-10 22-23 22-12 0-22-10-22-22 0-7 2-12 7-16l-23 0c4 4 6 9 6 16 0 12-10 22-22 22-13 0-23-10-23-22 0-7 3-13 8-17-28-2-43-6-62-11-19-5-30-17-30-31l0-62c0 0-6-2-8-2-7-2-12-8-12-15l0-190c0-8 7-15 15-15l278 0c8 0 15 7 15 15l0 190c0 7-5 13-11 15z m-242 60c26 6 52 10 78 11l0-49c-26-1-52-5-78-11z m100-137l-1 0c-19 0-33 15-33 33 0 18 14 32 33 32l1 0c18 0 32-14 32-32 0-18-14-33-32-33z m98 88c-26 6-52 10-78 11l0 49c26-1 52-5 78-11z m-65-304l-68 0-9-25c14-1 28-2 43-2l1 0c14 0 28 1 42 2z m105 3l0 39c0 8-6 14-14 14l-250 0c-8 0-14-6-14-14l0-39c0-6 4-12 11-13 3-1 7-2 11-3l-17-38c-3-8 1-18 9-22 2-1 4-1 6-1 7 0 13 4 16 10l19 44c5 0 10-1 14-2l15 40c1 5 6 8 12 8l86 0c6 0 11-3 13-8l14-40c4 1 9 2 14 2l20-44c2-6 8-10 15-10 2 0 4 0 6 1 9 4 12 14 9 22l-17 38c4 1 8 2 12 3 6 1 10 7 10 13z"/>
<glyph glyph-name="combo" unicode="&#101;" d="M9 311l393 0 0-55c0-2 1-4 3-6 2-2 4-3 6-3 3 0 5 1 7 3l91 91c2 2 3 4 3 7 0 2-1 4-3 6l-91 91c-2 2-5 3-7 3-3 0-5-1-6-3-2-1-3-3-3-6l0-55-393 0c-2 0-4-1-6-3-2-1-3-4-3-6l0-55c0-2 1-4 3-6 2-2 4-3 6-3z m493-110l-392 0 0 55c0 3-1 5-3 7-2 1-4 2-7 2-2 0-4-1-6-2l-91-92c-2-1-3-4-3-6 0-3 1-5 3-6l91-92c2-2 4-3 7-3 2 0 4 1 6 3 2 2 3 4 3 6l0 55 392 0c3 0 5 1 7 3 2 2 3 4 3 6l0 55c0 3-1 5-3 7-2 1-4 2-7 2z"/>
</font></defs></svg>
